Hunters Green House Price prediction
…
df_new <- df

Renamed adom and cdom columns

df_new <- rename(df_new, adom = adom_agentdaysonmarket)
df_new <- rename(df_new, cdom = cdom_cumuldaysmls)

Some of houses have been relisted and sold again between 2015 and 2020.

df_new %>% 
  count(Address) %>% 
  filter(., n>1)

## # A tibble: 29 x 2
##    Address                    n
##    <chr>                  <int>
##  1 17515 EDINBURGH DR         2
##  2 17517 EDINBURGH DR         2
##  3 17624 NATHANS DR           2
##  4 17706 EMERALD GREEN PL     2
##  5 17711 ESPRIT DR            2
##  6 17714 LONG RIDGE RD        2
##  7 17731 LONG RIDGE RD        2
##  8 17809 HICKORY MOSS PL      2
##  9 17815 HICKORY MOSS PL      2
## 10 17827 OSPREY POINTE PL     2
## # ... with 19 more rows
…
